{
  "project_info": {
    "project_number": "1058450010542",
    "firebase_url": "https://wealth-dragons-online-2f6d0.firebaseio.com",
    "project_id": "wealth-dragons-online-2f6d0",
    "storage_bucket": "wealth-dragons-online-2f6d0.appspot.com"
  },
  "client": [
    {
      "client_info": {
        "mobilesdk_app_id": "1:1058450010542:android:fa5725d0a8aa84b2",
        "android_client_info": {
          "package_name": "com.imentors.wealthdragons"
        }
      },
      "oauth_client": [
        {
          "client_id": "1058450010542-9cfu8cnfad5da785o7a8jal0bi533rue.apps.googleusercontent.com",
          "client_type": 1,
          "android_info": {
            "package_name": "com.imentors.wealthdragons",
            "certificate_hash": "04c0d0c034702cb0173239fc6ee403b92891560d"
          }
        },
        {
          "client_id": "1058450010542-9dokk33iaqeh10g845kgn8juq2i1lhrk.apps.googleusercontent.com",
          "client_type": 1,
          "android_info": {
            "package_name": "com.imentors.wealthdragons",
            "certificate_hash": "201cc94e06b51c5e926b8e3699cbdbf4d97dd801"
          }
        },
        {
          "client_id": "1058450010542-43ufdc179h5js944j2go0hc02mabr0eq.apps.googleusercontent.com",
          "client_type": 3
        }
      ],
      "api_key": [
        {
          "current_key": "AIzaSyANZxcjqnqBfRCam5qzBGjV8DIwWkcpSag"
        }
      ],
      "services": {
        "analytics_service": {
          "status": 1
        },
        "appinvite_service": {
          "status": 2,
          "other_platform_oauth_client": [
            {
              "client_id": "1058450010542-43ufdc179h5js944j2go0hc02mabr0eq.apps.googleusercontent.com",
              "client_type": 3
            }
          ]
        },
        "ads_service": {
          "status": 2
        }
      }
    }
  ],
  "configuration_version": "1"
}